%YAML 1.1
%TAG !u! tag:unity3d.com,2011:
--- !u!21 &2100000
Material:
  serializedVersion: 6
  m_ObjectHideFlags: 0
  m_PrefabParentObject: {fileID: 0}
  m_PrefabInternal: {fileID: 0}
  m_Name: Spring
  m_Shader: {fileID: 4800000, guid: 3f387b3c7760d5a488b5596b42425701, type: 3}
  m_ShaderKeywords: 
  m_LightmapFlags: 5
  m_CustomRenderQueue: -1
  stringTagMap: {}
  m_SavedProperties:
    serializedVersion: 2
    m_TexEnvs:
      data:
        first:
          name: _MainTex
        second:
          m_Texture: {fileID: 2800000, guid: 74fdae6f693e7b347b34d79d041f3b39, type: 3}
          m_Scale: {x: 1, y: 1}
          m_Offset: {x: 0, y: 0}
      data:
        first:
          name: _MKGlowTex
        second:
          m_Texture: {fileID: 2800000, guid: 74fdae6f693e7b347b34d79d041f3b39, type: 3}
          m_Scale: {x: 0, y: 10}
          m_Offset: {x: 0, y: 0}
      data:
        first:
          name: _GlowMap
        second:
          m_Texture: {fileID: 2800000, guid: c43738b2b5ea39e488158498ed03aa6e, type: 3}
          m_Scale: {x: 3.67, y: 5.09}
          m_Offset: {x: 0, y: 0}
    m_Floats:
      data:
        first:
          name: _MKGlowPower
        second: 1.339
      data:
        first:
          name: _MKGlowTexStrength
        second: 5.67
      data:
        first:
          name: _MKGlowOffSet
        second: 0
      data:
        first:
          name: _MKTiling
        second: 1.46
      data:
        first:
          name: _MKGlowTiling
        second: 4
      data:
        first:
          name: _MKGlowTilingX
        second: 1
      data:
        first:
          name: _MKGlowTilingY
        second: 1
      data:
        first:
          name: _Outter
        second: 1.94
      data:
        first:
          name: _Inner
        second: 0.65
    m_Colors:
      data:
        first:
          name: _Color
        second: {r: 0.294388, g: 0.6561806, b: 0.72794116, a: 1}
      data:
        first:
          name: _MKGlowColor
        second: {r: 0, g: 1, b: 0.86800003, a: 1}
      data:
        first:
          name: _MKGlowTexColor
        second: {r: 0.35521197, g: 0.66176474, b: 0.63233566, a: 1}
      data:
        first:
          name: _GlowColor
        second: {r: 1, g: 1, b: 1, a: 1}
